{
    "apps": [
        {
            "exec_mode": "cluster_mode",
            "name": "TMS_API_STAGING",
            "script": "./app.js",
            "instances": 1,
            "env": {
                "NODE_ENV": "staging",
                "SERVER_PORT": 3000,
                "REDIS_HOST": "localhost",
                "REDIS_PORT": "6379"
            }
        }
    ]
}