{
  "name": "accessorial_charge_master",
  "plural": "accessorial_charges",
  "base": "PersistedModel",
  "idInjection": false,
  "options": {
    "validateUpsert": true
  },
  "properties": {
    "acc_charge_id": {
      "type": "number",
      "id": true,
      "generated": false
    },
    "customer_id": {
      "type": "number"
    },
    "accessories_name": {
      "type": "string",
      "required": true
    },
    "accessories_interval": {
      "type": "string",
      "required": true
    },
    "accessories_value": {
      "type": "number",
      "required": true
    },
    "description": {
      "type": "string",
      "required": true
    },
    "rate": {
      "type": "string",
      "required": true
    }
  },
  "validations": [],
  "relations": {
    "customerMaster": {
      "type": "belongsTo",
      "model": "customer_master",
      "foreignKey": "customer_id"
    }
  },
  "acls": [],
  "methods": {
    "getGeneralAccessoriesRates": {
      "accepts": [
        {
          "arg": "request",
          "type": "object",
          "required": true,
          "description": "",
          "http": {
            "source": "body"
          }
        },
        {
          "arg": "response",
          "type": "object",
          "description": "",
          "http": {
            "source": "res"
          }
        },
        {
          "arg": "options",
          "type": "object",
          "description": "token info",
          "http": "optionsFromRequest"
        }
      ],
      "returns": [
        {
          "arg": "response",
          "type": "object",
          "root": true,
          "description": ""
        }
      ],
      "description": "to get the general accessories rate",
      "http": [
        {
          "path": "/getGeneralAccessoriesRates",
          "verb": "post"
        }
      ]
    },
    "getAccessoriesNames": {
      "accepts": [
        {
          "arg": "response",
          "type": "object",
          "description": "",
          "http": {
            "source": "res"
          }
        },
        {
          "arg": "options",
          "type": "object",
          "description": "token info",
          "http": "optionsFromRequest"
        }
      ],
      "returns": [
        {
          "arg": "AccessoriesNames",
          "type": "object",
          "root": true,
          "description": ""
        }
      ],
      "description": "get the AccessoriesNames",
      "http": [
        {
          "path": "/getAccessoriesNames",
          "verb": "get"
        }
      ]
    },
    "getAccessoriesCharges": {
      "accepts": [
        {
          "arg": "customer_id",
          "type": "number",
          "required": true,
          "description": "",
          "http": {
            "source": "query"
          }
        },
        {
          "arg": "response",
          "type": "object",
          "description": "",
          "http": {
            "source": "res"
          }
        },
        {
          "arg": "options",
          "type": "object",
          "description": "token info",
          "http": "optionsFromRequest"
        }
      ],
      "returns": [
        {
          "arg": "AccessoriesCharges",
          "type": "object",
          "root": true,
          "description": ""
        }
      ],
      "description": "get the Accessories charges",
      "http": [
        {
          "path": "/getAccessoriesCharges",
          "verb": "get"
        }
      ]
    },
    "postGeneralAccessoriesRates": {
      "accepts": [
        {
          "arg": "data",
          "type": "object",
          "required": true,
          "description": "",
          "http": {
            "source": "body"
          }
        },
        {
          "arg": "response",
          "type": "object",
          "description": "",
          "http": {
            "source": "res"
          }
        },
        {
          "arg": "options",
          "type": "object",
          "description": "token info",
          "http": "optionsFromRequest"
        }
      ],
      "returns": [
        {
          "arg": "postdata",
          "type": "object",
          "root": true,
          "description": ""
        }
      ],
      "description": "posting the general accessories rates",
      "http": [
        {
          "path": "/postGeneralAccessoriesRates",
          "verb": "post"
        }
      ]
    },
    "updateGeneralAccessoriesRates": {
      "accepts": [
        {
          "arg": "data",
          "type": "object",
          "required": true,
          "description": "",
          "http": {
            "source": "body"
          }
        },
        {
          "arg": "response",
          "type": "object",
          "description": "",
          "http": {
            "source": "res"
          }
        },
        {
          "arg": "options",
          "type": "object",
          "description": "token info",
          "http": "optionsFromRequest"
        }
      ],
      "returns": [
        {
          "arg": "updatedata",
          "type": "object",
          "root": true,
          "description": ""
        }
      ],
      "description": "updating the general accessories rates",
      "http": [
        {
          "path": "/updateGeneralAccessoriesRates",
          "verb": "put"
        }
      ]
    },
    "deleteGeneralAccessoriesRates": {
      "accepts": [
        {
          "arg": "acc_charge_id",
          "type": "number",
          "required": true,
          "description": "",
          "http": {
            "source": "query"
          }
        },
        {
          "arg": "response",
          "type": "object",
          "description": "",
          "http": {
            "source": "res"
          }
        },
        {
          "arg": "options",
          "type": "object",
          "description": "token info",
          "http": "optionsFromRequest"
        }
      ],
      "returns": [
        {
          "arg": "deletecount",
          "type": "object",
          "root": true,
          "description": ""
        }
      ],
      "description": "to delete data from general accessories rates",
      "http": [
        {
          "path": "/deleteGeneralAccessoriesRates",
          "verb": "delete"
        }
      ]
    }
  }
}