{
  "name": "chassis_invoice",
  "base": "PersistedModel",
  "idInjection": true,
  "options": {
    "validateUpsert": true
  },
  "properties": {},
  "validations": [],
  "relations": {},
  "acls": [],
  "methods": {
    "validateDocument": {
      "accepts": [
        {
          "arg": "request",
          "type": "object",
          "description": "",
          "http": {
            "source": "req"
          }
        },
        {
          "arg": "response",
          "type": "object",
          "description": "",
          "http": {
            "source": "res"
          }
        },
        {
          "arg": "options",
          "type": "object",
          "description": "token info",
          "http": "optionsFromRequest"
        }
      ],
      "returns": [
        {
          "type": "object",
          "root": true
        }
      ],
      "description": "validate the file in chassis invoice server",
      "http": [
        {
          "path": "/validateDocument",
          "verb": "post"
        }
      ]
    },
    "reconcileDocument": {
      "accepts": [
        {
          "arg": "request",
          "type": "object",
          "description": "",
          "http": {
            "source": "req"
          }
        },
        {
          "arg": "response",
          "type": "object",
          "description": "",
          "http": {
            "source": "res"
          }
        },
        {
          "arg": "options",
          "type": "object",
          "description": "token info",
          "http": "optionsFromRequest"
        }
      ],
      "returns": [
        {
          "type": "object",
          "root": true
        }
      ],
      "description": "reconcile the file in chassis invoice server",
      "http": [
        {
          "path": "/reconcileDocument",
          "verb": "post"
        }
      ]
    }
  }
}