{
    "name": "configuration_master",
    "plural": "configurations",
    "base": "PersistedModel",
    "idInjection": false,
    "options": {
        "validateUpsert": true
    },
    "validations": [],
    "relations": {},
    "acls": [],
    "methods": {
        "postNewConfiguration": {
            "accepts": [
                {
                    "arg": "request",
                    "type": "object",
                    "required": true,
                    "description": "",
                    "http": {
                        "source": "body"
                    }
                },
                {
                    "arg": "response",
                    "type": "object",
                    "description": "",
                    "http": {
                        "source": "res"
                    }
                },
                {
                    "arg": "options",
                    "type": "object",
                    "description": "token info",
                    "http": "optionsFromRequest"
                }
            ],
            "returns": [
                {
                    "arg": "response",
                    "type": "object",
                    "root": true,
                    "description": ""
                }
            ],
            "description": "post the new configuration data",
            "http": [
                {
                    "path": "/postNewConfiguration",
                    "verb": "post"
                }
            ]
        },
        "getSelectedDropdownTypes": {
            "accepts": [
                {
                    "arg": "selectedType",
                    "type": "string",
                    "description": "token info",
                    "http": {
                        "source": "query"
                    }
                },
                {
                    "arg": "response",
                    "type": "object",
                    "description": "",
                    "http": {
                        "source": "res"
                    }
                },
                {
                    "arg": "options",
                    "type": "object",
                    "description": "token info",
                    "http": "optionsFromRequest"
                }
            ],
            "returns": [
                {
                    "arg": "response",
                    "type": "object",
                    "root": true,
                    "description": ""
                }
            ],
            "description": "get the selected dropdown types",
            "http": [
                {
                    "path": "/getSelectedDropdownTypes",
                    "verb": "get"
                }
            ]
        },
        "updateConfiguration": {
            "accepts": [
                {
                    "arg": "request",
                    "type": "object",
                    "required": true,
                    "description": "",
                    "http": {
                        "source": "body"
                    }
                },
                {
                    "arg": "response",
                    "type": "object",
                    "description": "",
                    "http": {
                        "source": "res"
                    }
                },
                {
                    "arg": "options",
                    "type": "object",
                    "description": "token info",
                    "http": "optionsFromRequest"
                }
            ],
            "returns": [
                {
                    "arg": "response",
                    "type": "object",
                    "root": true,
                    "description": ""
                }
            ],
            "description": "updating the configuration data",
            "http": [
                {
                    "path": "/updateConfiguration",
                    "verb": "put"
                }
            ]
        },
        "deleteConfiguration": {
            "accepts": [
                {
                    "arg": "selectedDropdown",
                    "type": "string",
                    "required": true,
                    "description": "",
                    "http": {
                        "source": "query"
                    }
                },
                {
                    "arg": "id",
                    "type": "number",
                    "required": true,
                    "description": "",
                    "http": {
                        "source": "query"
                    }
                },
                {
                    "arg": "response",
                    "type": "object",
                    "description": "",
                    "http": {
                        "source": "res"
                    }
                },
                {
                    "arg": "options",
                    "type": "object",
                    "description": "token info",
                    "http": "optionsFromRequest"
                }
            ],
            "returns": [
                {
                    "arg": "response",
                    "type": "object",
                    "root": true,
                    "description": ""
                }
            ],
            "description": "to delete data from configuration",
            "http": [
                {
                    "path": "/deleteConfiguration",
                    "verb": "delete"
                }
            ]
        },
        "postOrderFlag": {
            "accepts": [
                {
                    "arg": "request",
                    "type": "object",
                    "required": true,
                    "description": "",
                    "http": {
                        "source": "body"
                    }
                },
                {
                    "arg": "response",
                    "type": "object",
                    "description": "",
                    "http": {
                        "source": "res"
                    }
                },
                {
                    "arg": "options",
                    "type": "object",
                    "description": "token info",
                    "http": "optionsFromRequest"
                }
            ],
            "returns": [
                {
                    "arg": "response",
                    "type": "object",
                    "root": true,
                    "description": ""
                }
            ],
            "description": "post the new order flag data",
            "http": [
                {
                    "path": "/postOrderFlag",
                    "verb": "post"
                }
            ]
        },
        "updateOrderFlag": {
            "accepts": [
                {
                    "arg": "request",
                    "type": "object",
                    "required": true,
                    "description": "",
                    "http": {
                        "source": "body"
                    }
                },
                {
                    "arg": "response",
                    "type": "object",
                    "description": "",
                    "http": {
                        "source": "res"
                    }
                },
                {
                    "arg": "options",
                    "type": "object",
                    "description": "token info",
                    "http": "optionsFromRequest"
                }
            ],
            "returns": [
                {
                    "arg": "response",
                    "type": "object",
                    "root": true,
                    "description": ""
                }
            ],
            "description": "updating the order flag",
            "http": [
                {
                    "path": "/updateOrderFlag",
                    "verb": "put"
                }
            ]
        },
        "deleteOrderFlag": {
            "accepts": [
                {
                    "arg": "request",
                    "type": "object",
                    "required": true,
                    "description": "",
                    "http": {
                        "source": "body"
                    }
                },
                {
                    "arg": "response",
                    "type": "object",
                    "description": "",
                    "http": {
                        "source": "res"
                    }
                },
                {
                    "arg": "options",
                    "type": "object",
                    "description": "token info",
                    "http": "optionsFromRequest"
                }
            ],
            "returns": [
                {
                    "arg": "response",
                    "type": "object",
                    "root": true,
                    "description": ""
                }
            ],
            "description": "to delete data from Order Flag",
            "http": [
                {
                    "path": "/deleteOrderFlag",
                    "verb": "post"
                }
            ]
        },
        "getDropdown": {
            "accepts": [
                {
                    "arg": "dropdownType",
                    "type": "string",
                    "required": true,
                    "description": "",
                    "http": {
                        "source": "query"
                    }
                },
                {
                    "arg": "response",
                    "type": "object",
                    "description": "",
                    "http": {
                        "source": "res"
                    }
                },
                {
                    "arg": "options",
                    "type": "object",
                    "description": "token info",
                    "http": "optionsFromRequest"
                }
            ],
            "returns": [
                {
                    "arg": "response",
                    "type": "object",
                    "root": true,
                    "description": ""
                }
            ],
            "description": "get the equipment type dropdown",
            "http": [
                {
                    "path": "/getDropdown",
                    "verb": "get"
                }
            ]
        },
        "getAllDropdown": {
            "accepts": [
                {
                    "arg": "dropdownType",
                    "type": "string",
                    "required": true,
                    "description": "",
                    "http": {
                        "source": "query"
                    }
                },
                {
                    "arg": "response",
                    "type": "object",
                    "description": "",
                    "http": {
                        "source": "res"
                    }
                },
                {
                    "arg": "options",
                    "type": "object",
                    "description": "token info",
                    "http": "optionsFromRequest"
                }
            ],
            "returns": [
                {
                    "arg": "response",
                    "type": "object",
                    "root": true,
                    "description": ""
                }
            ],
            "description": "get the equipment type dropdown",
            "http": [
                {
                    "path": "/getAllDropdown",
                    "verb": "get"
                }
            ]
        }
    }
}