{
  "name": "order_accessorial_charges",
  "plural": "order_accessorial_charges",
  "base": "PersistedModel",
  "idInjection": false,
  "options": {
    "validateUpsert": true
  },
  "properties": {
    "acc_charge_id": {
      "type": "number",
      "id": true,
      "generated": false
    },
    "order_container_chassis_id": {
      "type": "number"
    },
    "accessories_name": {
      "type": "string",
      "required": true
    },
    "accessories_interval": {
      "type": "string",
      "required": true
    },
    "accessories_value": {
      "type": "string",
      "required": true
    },
    "description": {
      "type": "string",
      "required": true
    },
    "rate": {
      "type": "string",
      "required": true
    }
  },
  "validations": [],
  "relations": {
    "orderContainerChassis": {
      "type": "belongsTo",
      "model": "order_container_chassis",
      "foreignKey": "order_container_chassis_id"
    }
  },
  "acls": [],
  "methods": {
    "updateChargesRate": {
      "accepts": [
        {
          "arg": "data",
          "type": "object",
          "required": true,
          "description": "",
          "http": {
            "source": "body"
          }
        },
        {
          "arg": "response",
          "type": "object",
          "description": "",
          "http": {
            "source": "res"
          }
        },
        {
          "arg": "options",
          "type": "object",
          "description": "token info",
          "http": "optionsFromRequest"
        }
      ],
      "returns": [
        {
          "arg": "respdata",
          "type": "object",
          "root": true,
          "description": ""
        }
      ],
      "description": "update rate",
      "http": [
        {
          "path": "/updateChargesRate",
          "verb": "put"
        }
      ]
    }
  }
}