{
    "name": "search",
    "plural": "searches",
    "base": "PersistedModel",
    "idInjection": false,
    "options": {
        "validateUpsert": true
    },
    "properties": {},
    "validations": [],
    "relations": {},
    "acls": [],
    "methods": {
        "advancedSearchAutoSuggest": {
            "accepts": [
                {
                    "arg": "search",
                    "type": "string",
                    "required": true,
                    "description": "",
                    "http": {
                        "source": "query"
                    }
                },
                {
                    "arg": "searchBy",
                    "type": "string",
                    "required": true,
                    "description": "",
                    "http": {
                        "source": "query"
                    }
                },
                {
                    "arg": "response",
                    "type": "object",
                    "description": "",
                    "http": {
                        "source": "res"
                    }
                },
                {
                    "arg": "options",
                    "type": "object",
                    "description": "token info",
                    "http": "optionsFromRequest"
                }
            ],
            "returns": [
                {
                    "arg": "response",
                    "type": "object",
                    "root": true,
                    "description": ""
                }
            ],
            "description": "search auto suggest",
            "http": [
                {
                    "path": "/advancedSearchAutoSuggest",
                    "verb": "get"
                }
            ]
        },
        "advancedSearch": {
            "accepts": [
                {
                    "arg": "request",
                    "type": "object",
                    "required": true,
                    "description": "",
                    "http": {
                        "source": "body"
                    }
                },
                {
                    "arg": "response",
                    "type": "object",
                    "description": "",
                    "http": {
                        "source": "res"
                    }
                },
                {
                    "arg": "options",
                    "type": "object",
                    "description": "token info",
                    "http": "optionsFromRequest"
                }
            ],
            "returns": [
                {
                    "arg": "response",
                    "type": "object",
                    "root": true,
                    "description": ""
                }
            ],
            "description": "advanced Search",
            "http": [
                {
                    "path": "/advancedSearch",
                    "verb": "post"
                }
            ]
        },
        "filterAutoSuggest": {
            "accepts": [
                {
                    "arg": "module",
                    "type": "string",
                    "required": true,
                    "description": "",
                    "http": {
                        "source": "query"
                    }
                },
                {
                    "arg": "search",
                    "type": "string",
                    "required": true,
                    "description": "",
                    "http": {
                        "source": "query"
                    }
                },
                {
                    "arg": "searchBy",
                    "type": "string",
                    "required": true,
                    "description": "",
                    "http": {
                        "source": "query"
                    }
                },
                {
                    "arg": "response",
                    "type": "object",
                    "description": "",
                    "http": {
                        "source": "res"
                    }
                },
                {
                    "arg": "options",
                    "type": "object",
                    "description": "token info",
                    "http": "optionsFromRequest"
                }
            ],
            "returns": [
                {
                    "arg": "response",
                    "type": "object",
                    "root": true,
                    "description": ""
                }
            ],
            "description": "search auto suggest",
            "http": [
                {
                    "path": "/filterAutoSuggest",
                    "verb": "get"
                }
            ]
        }
    }
}