{
    "version": "2.0.0-SNAPSHOT",
    "restApiRoot": "/api",
    "host": "0.0.0.0",
    "port": 3000,
    "domain": "prodev.lotustms.com",
    "ssl": false,
    "mail": "verifytmsdev@gmail.com",
    "awsSecretAccessKey": "oT7K30QsImYUM8wPQuo/9qlZFE1Sb11k6eAs6xfo",
    "awsAccessKeyId": "AKIAV43QCTRNARJJ4N6Q",
    "awsRegion": "us-east-2",
    "awsS3BucketName": "tms-developer",
    "awsS3ACL": "bucket-owner-full-control",
    "quickBookClientId": "ABBUhVqhdlJiyPi8VByW2vFSKQ5lkrLxmr9xRvVf8CZTPjASA3",
    "quickBookClientSecret": "Ay3xzvgmCw41ZWWYAMujVrj1wnQ5xF4eeKRF3aMo",
    "quickBookEnvironment": "sandbox",
    "quickBookRedirectUri": "https://prodev.lotustms.com/api/callback",
    "bingApiKey": "AqBjAT_URbkCiBPLriQvHg2r4SXmOfvtzizcfBlMoFxt7m5GgOnDhOp7TSKOtKK_",
    "reportingServer": "http://localhost:3001/api/reports/",
    "notificationServer": "http://localhost:3002/api/notification/",
    "chassisReconcileServer": "http://localhost:3003/api/chassisInvoice/",
    "keeptruckinServer": "http://localhost:3004/keeptruckin/",
    "batchSecretKey": "h4k69@-3@t@t@-p0@cd",
    "remoting": {
        "context": false,
        "rest": {
            "handleErrors": false,
            "normalizeHttpPath": false,
            "xml": false
        },
        "json": {
            "strict": false,
            "limit": "60mb"
        },
        "urlencoded": {
            "extended": true,
            "limit": "60mb"
        },
        "cors": false
    }
}
